% q T alpha
0.10 0 0.86
0.20 0 0.86
0.30 0 0.72
0.35 0 0.44
0.10 10 0.86
0.20 10 0.86
0.30 10 0.71
0.35 10 0.43
0.10 30 0.86
0.20 30 0.85
0.30 30 0.70
0.35 30 0.42
0.10 50 0.86
0.20 50 0.85
0.30 50 0.66
0.35 50 0.39
